P01/alu.vcd
$date
	Mon Nov 15 00:40:10 2021
$end
$version
	Icarus Verilog
$end
$timescale
	10ps
$end
$scope module alu_tb $end
$var wire 1 ! t_z $end
$var wire 1 " t_s $end
$var wire 1 # t_c $end
$var wire 4 $ t_R [3:0] $end
$var reg 4 % t_A [3:0] $end
$var reg 4 & t_B [3:0] $end
$var reg 2 ' t_Op [1:0] $end
$var reg 1 ( t_arit $end
$var integer 32 ) errores [31:0] $end
$scope module mat $end
$var wire 4 * A [3:0] $end
$var wire 2 + ALUOp [1:0] $end
$var wire 4 , B [3:0] $end
$var wire 1 ( arit $end
$var wire 1 - cin_0 $end
$var wire 1 . cin_1 $end
$var wire 1 / cin_2 $end
$var wire 1 0 cin_3 $end
$var wire 1 1 cpl $end
$var wire 1 2 op1_A $end
$var wire 1 3 op2_B $end
$var wire 1 ! zero $end
$var wire 1 " sign $end
$var wire 4 4 s_b [3:0] $end
$var wire 1 5 cout_3 $end
$var wire 1 6 cout_2 $end
$var wire 1 7 cout_1 $end
$var wire 1 8 cout_0 $end
$var wire 1 # carry $end
$var wire 4 9 R [3:0] $end
$var wire 4 : OP2 [3:0] $end
$var wire 4 ; OP1 [3:0] $end
$scope module c1_OP2 $end
$var wire 1 1 cpl $end
$var wire 4 < Sal [3:0] $end
$var wire 4 = Ent [3:0] $end
$upscope $end
$scope module cal0 $end
$var wire 1 > a $end
$var wire 1 ( arit $end
$var wire 1 ? b $end
$var wire 1 - c_in $end
$var wire 2 @ s [1:0] $end
$var wire 1 A sum_fa $end
$var wire 1 B out $end
$var wire 1 C cout_cl $end
$var wire 1 D carry_out $end
$var wire 1 8 c_out $end
$scope module cl_ $end
$var wire 1 > a $end
$var wire 1 ? b $end
$var wire 2 E s [1:0] $end
$var wire 1 F salida_and $end
$var wire 1 G salida_not $end
$var wire 1 H salida_or $end
$var wire 1 I salida_xor $end
$var wire 1 C out $end
$scope module celda_log $end
$var wire 1 F a $end
$var wire 1 H b $end
$var wire 1 I c $end
$var wire 1 G d $end
$var wire 2 J s [1:0] $end
$var reg 1 C out $end
$upscope $end
$upscope $end
$scope module fa_ $end
$var wire 1 > a $end
$var wire 1 ? b $end
$var wire 1 - cin $end
$var wire 1 D cout $end
$var wire 1 K sum1 $end
$var wire 1 A sum $end
$var wire 1 L carry2 $end
$var wire 1 M carry1 $end
$upscope $end
$upscope $end
$scope module cal1 $end
$var wire 1 N a $end
$var wire 1 ( arit $end
$var wire 1 O b $end
$var wire 1 . c_in $end
$var wire 2 P s [1:0] $end
$var wire 1 Q sum_fa $end
$var wire 1 R out $end
$var wire 1 S cout_cl $end
$var wire 1 T carry_out $end
$var wire 1 7 c_out $end
$scope module cl_ $end
$var wire 1 N a $end
$var wire 1 O b $end
$var wire 2 U s [1:0] $end
$var wire 1 V salida_and $end
$var wire 1 W salida_not $end
$var wire 1 X salida_or $end
$var wire 1 Y salida_xor $end
$var wire 1 S out $end
$scope module celda_log $end
$var wire 1 V a $end
$var wire 1 X b $end
$var wire 1 Y c $end
$var wire 1 W d $end
$var wire 2 Z s [1:0] $end
$var reg 1 S out $end
$upscope $end
$upscope $end
$scope module fa_ $end
$var wire 1 N a $end
$var wire 1 O b $end
$var wire 1 . cin $end
$var wire 1 T cout $end
$var wire 1 [ sum1 $end
$var wire 1 Q sum $end
$var wire 1 \ carry2 $end
$var wire 1 ] carry1 $end
$upscope $end
$upscope $end
$scope module cal2 $end
$var wire 1 ^ a $end
$var wire 1 ( arit $end
$var wire 1 _ b $end
$var wire 1 / c_in $end
$var wire 2 ` s [1:0] $end
$var wire 1 a sum_fa $end
$var wire 1 b out $end
$var wire 1 c cout_cl $end
$var wire 1 d carry_out $end
$var wire 1 6 c_out $end
$scope module cl_ $end
$var wire 1 ^ a $end
$var wire 1 _ b $end
$var wire 2 e s [1:0] $end
$var wire 1 f salida_and $end
$var wire 1 g salida_not $end
$var wire 1 h salida_or $end
$var wire 1 i salida_xor $end
$var wire 1 c out $end
$scope module celda_log $end
$var wire 1 f a $end
$var wire 1 h b $end
$var wire 1 i c $end
$var wire 1 g d $end
$var wire 2 j s [1:0] $end
$var reg 1 c out $end
$upscope $end
$upscope $end
$scope module fa_ $end
$var wire 1 ^ a $end
$var wire 1 _ b $end
$var wire 1 / cin $end
$var wire 1 d cout $end
$var wire 1 k sum1 $end
$var wire 1 a sum $end
$var wire 1 l carry2 $end
$var wire 1 m carry1 $end
$upscope $end
$upscope $end
$scope module cal3 $end
$var wire 1 n a $end
$var wire 1 ( arit $end
$var wire 1 o b $end
$var wire 1 0 c_in $end
$var wire 2 p s [1:0] $end
$var wire 1 q sum_fa $end
$var wire 1 r out $end
$var wire 1 s cout_cl $end
$var wire 1 t carry_out $end
$var wire 1 5 c_out $end
$scope module cl_ $end
$var wire 1 n a $end
$var wire 1 o b $end
$var wire 2 u s [1:0] $end
$var wire 1 v salida_and $end
$var wire 1 w salida_not $end
$var wire 1 x salida_or $end
$var wire 1 y salida_xor $end
$var wire 1 s out $end
$scope module celda_log $end
$var wire 1 v a $end
$var wire 1 x b $end
$var wire 1 y c $end
$var wire 1 w d $end
$var wire 2 z s [1:0] $end
$var reg 1 s out $end
$upscope $end
$upscope $end
$scope module fa_ $end
$var wire 1 n a $end
$var wire 1 o b $end
$var wire 1 0 cin $end
$var wire 1 t cout $end
$var wire 1 { sum1 $end
$var wire 1 q sum $end
$var wire 1 | carry2 $end
$var wire 1 } carry1 $end
$upscope $end
$upscope $end
$scope module mux_OP1 $end
$var wire 4 ~ a [3:0] $end
$var wire 4 !" b [3:0] $end
$var wire 1 2 s $end
$var wire 4 "" out [3:0] $end
$upscope $end
$scope module mux_OP2 $end
$var wire 4 #" a [3:0] $end
$var wire 4 $" b [3:0] $end
$var wire 1 3 s $end
$var wire 4 %" out [3:0] $end
$upscope $end
$upscope $end
$scope task check $end
$var reg 1 &" flag_carry $end
$var reg 1 '" flag_sign $end
$var reg 1 (" flag_zero $end
$var reg 5 )" result [4:0] $end
$upscope $end
$upscope $end
$enddefinitions $end
#0
$dumpvars
bx )"
x("
x'"
x&"
b0 %"
b0 $"
b0 #"
b0 ""
b0 !"
b0 ~
0}
0|
0{
b0 z
0y
0x
1w
0v
b0 u
0t
0s
0r
0q
b0 p
0o
0n
0m
0l
0k
b0 j
0i
0h
1g
0f
b0 e
0d
0c
0b
0a
b0 `
0_
0^
0]
0\
0[
b0 Z
0Y
0X
1W
0V
b0 U
0T
0S
0R
0Q
b0 P
0O
0N
0M
0L
0K
b0 J
0I
0H
1G
0F
b0 E
0D
0C
0B
0A
b0 @
0?
0>
b0 =
b0 <
b0 ;
b0 :
b0 9
08
07
06
05
b0 4
13
12
01
00
0/
0.
0-
b0 ,
b0 +
b0 *
b0 )
0(
b0 '
b0 &
b0 %
b0 $
0#
0"
1!
$end
#200
1A
1H
1I
1K
1?
b1 :
b1 <
b1 4
b1 =
b1 %"
b1 &
b1 ,
b1 $"
1("
bx0000 )"
#400
1Q
0A
1X
1Y
1[
0H
0I
0K
1O
0?
b10 :
b10 <
b10 4
b10 =
b10 %"
b10 &
b10 ,
b10 $"
#600
1A
1H
1I
1K
1?
b11 :
b11 <
b11 4
b11 =
b11 %"
b11 &
b11 ,
b11 $"
#800
1a
0Q
0A
1h
1i
1k
0X
0Y
0[
0H
0I
0K
1_
0O
0?
b100 :
b100 <
b100 4
b100 =
b100 %"
b100 &
b100 ,
b100 $"
#1000
1A
1H
1I
1K
1?
b101 :
b101 <
b101 4
b101 =
b101 %"
b101 &
b101 ,
b101 $"
#1200
1Q
0A
1X
1Y
1[
0H
0I
0K
1O
0?
b110 :
b110 <
b110 4
b110 =
b110 %"
b110 &
b110 ,
b110 $"
#1400
1A
1H
1I
1K
1?
b111 :
b111 <
b111 4
b111 =
b111 %"
b111 &
b111 ,
b111 $"
#1600
1q
0a
0Q
0A
1x
1y
1{
0h
0i
0k
0X
0Y
0[
0H
0I
0K
1o
0_
0O
0?
b1000 :
b1000 <
b1000 4
b1000 =
b1000 %"
b1000 &
b1000 ,
b1000 $"
#1800
1A
1H
1I
1K
1?
b1001 :
b1001 <
b1001 4
b1001 =
b1001 %"
b1001 &
b1001 ,
b1001 $"
#2000
1Q
0A
1X
1Y
1[
0H
0I
0K
1O
0?
b1010 :
b1010 <
b1010 4
b1010 =
b1010 %"
b1010 &
b1010 ,
b1010 $"
#2200
1A
1H
1I
1K
1?
b1011 :
b1011 <
b1011 4
b1011 =
b1011 %"
b1011 &
b1011 ,
b1011 $"
#2400
1a
0Q
0A
1h
1i
1k
0X
0Y
0[
0H
0I
0K
1_
0O
0?
b1100 :
b1100 <
b1100 4
b1100 =
b1100 %"
b1100 &
b1100 ,
b1100 $"
#2600
1A
1H
1I
1K
1?
b1101 :
b1101 <
b1101 4
b1101 =
b1101 %"
b1101 &
b1101 ,
b1101 $"
#2800
1Q
0A
1X
1Y
1[
0H
0I
0K
1O
0?
b1110 :
b1110 <
b1110 4
b1110 =
b1110 %"
b1110 &
b1110 ,
b1110 $"
#3000
1A
1H
1I
1K
1?
b1111 :
b1111 <
b1111 4
b1111 =
b1111 %"
b1111 &
b1111 ,
b1111 $"
#3200
0q
0a
0Q
0x
0y
0{
0h
0i
0k
0X
0Y
0[
0G
0o
0_
0O
0?
1>
b0 :
b0 <
b1 ;
b1 ""
b0 4
b0 =
b0 %"
b1 %
b1 *
b1 !"
b1 #"
b0 &
b0 ,
b0 $"
#3400
0!
b1 $
b1 9
1B
1C
0A
1D
1F
0I
0K
1M
1?
b1 :
b1 <
b1 4
b1 =
b1 %"
b1 &
b1 ,
b1 $"
#3600
1!
b0 $
b0 9
0B
1Q
0C
1A
0D
1X
1Y
1[
0F
1I
1K
0M
1O
0?
b10 :
b10 <
b10 4
b10 =
b10 %"
b10 &
b10 ,
b10 $"
0("
bx0001 )"
#3800
0!
b1 $
b1 9
1B
1C
0A
1D
1F
0I
0K
1M
1?
b11 :
b11 <
b11 4
b11 =
b11 %"
b11 &
b11 ,
b11 $"
1("
bx0000 )"
#4000
1!
b0 $
b0 9
0B
1a
0Q
0C
1A
0D
1h
1i
1k
0X
0Y
0[
0F
1I
1K
0M
1_
0O
0?
b100 :
b100 <
b100 4
b100 =
b100 %"
b100 &
b100 ,
b100 $"
0("
bx0001 )"
#4200
0!
b1 $
b1 9
1B
1C
0A
1D
1F
0I
0K
1M
1?
b101 :
b101 <
b101 4
b101 =
b101 %"
b101 &
b101 ,
b101 $"
1("
bx0000 )"
#4400
1!
b0 $
b0 9
0B
1Q
0C
1A
0D
1X
1Y
1[
0F
1I
1K
0M
1O
0?
b110 :
b110 <
b110 4
b110 =
b110 %"
b110 &
b110 ,
b110 $"
0("
bx0001 )"
#4600
0!
b1 $
b1 9
1B
1C
0A
1D
1F
0I
0K
1M
1?
b111 :
b111 <
b111 4
b111 =
b111 %"
b111 &
b111 ,
b111 $"
1("
bx0000 )"
#4800
1!
b0 $
b0 9
0B
1q
0a
0Q
0C
1A
0D
1x
1y
1{
0h
0i
0k
0X
0Y
0[
0F
1I
1K
0M
1o
0_
0O
0?
b1000 :
b1000 <
b1000 4
b1000 =
b1000 %"
b1000 &
b1000 ,
b1000 $"
0("
bx0001 )"
#5000
0!
b1 $
b1 9
1B
1C
0A
1D
1F
0I
0K
1M
1?
b1001 :
b1001 <
b1001 4
b1001 =
b1001 %"
b1001 &
b1001 ,
b1001 $"
1("
bx0000 )"
#5200
1!
b0 $
b0 9
0B
1Q
0C
1A
0D
1X
1Y
1[
0F
1I
1K
0M
1O
0?
b1010 :
b1010 <
b1010 4
b1010 =
b1010 %"
b1010 &
b1010 ,
b1010 $"
0("
bx0001 )"
#5400
0!
b1 $
b1 9
1B
1C
0A
1D
1F
0I
0K
1M
1?
b1011 :
b1011 <
b1011 4
b1011 =
b1011 %"
b1011 &
b1011 ,
b1011 $"
1("
bx0000 )"
#5600
1!
b0 $
b0 9
0B
1a
0Q
0C
1A
0D
1h
1i
1k
0X
0Y
0[
0F
1I
1K
0M
1_
0O
0?
b1100 :
b1100 <
b1100 4
b1100 =
b1100 %"
b1100 &
b1100 ,
b1100 $"
0("
bx0001 )"
#5800
0!
b1 $
b1 9
1B
1C
0A
1D
1F
0I
0K
1M
1?
b1101 :
b1101 <
b1101 4
b1101 =
b1101 %"
b1101 &
b1101 ,
b1101 $"
1("
bx0000 )"
#6000
1!
b0 $
b0 9
0B
1Q
0C
1A
0D
1X
1Y
1[
0F
1I
1K
0M
1O
0?
b1110 :
b1110 <
b1110 4
b1110 =
b1110 %"
b1110 &
b1110 ,
b1110 $"
0("
bx0001 )"
#6200
0!
b1 $
b1 9
1B
1C
0A
1D
1F
0I
0K
1M
1?
b1111 :
b1111 <
b1111 4
b1111 =
b1111 %"
b1111 &
b1111 ,
b1111 $"
1("
bx0000 )"
#6400
1!
b0 $
b0 9
0B
0q
0a
0C
0D
0x
0y
0{
0h
0i
0k
0W
0F
0H
1G
0M
0o
0_
0O
0?
1N
0>
b0 :
b0 <
b10 ;
b10 ""
b0 4
b0 =
b0 %"
b10 %
b10 *
b10 !"
b10 #"
b0 &
b0 ,
b0 $"
0("
bx0001 )"
#6600
1A
1H
1I
1K
1?
b1 :
b1 <
b1 4
b1 =
b1 %"
b1 &
b1 ,
b1 $"
1("
bx0000 )"
#6800
0!
b10 $
b10 9
1R
1S
0Q
1T
0A
1V
0Y
0[
1]
0H
0I
0K
1O
0?
b10 :
b10 <
b10 4
b10 =
b10 %"
b10 &
b10 ,
b10 $"
#7000
1A
1H
1I
1K
1?
b11 :
b11 <
b11 4
b11 =
b11 %"
b11 &
b11 ,
b11 $"
0("
bx0010 )"
#7200
1!
b0 $
b0 9
0R
1a
0S
1Q
0T
0A
1h
1i
1k
0V
1Y
1[
0]
0H
0I
0K
1_
0O
0?
b100 :
b100 <
b100 4
b100 =
b100 %"
b100 &
b100 ,
b100 $"
#7400
1A
1H
1I
1K
1?
b101 :
b101 <
b101 4
b101 =
b101 %"
b101 &
b101 ,
b101 $"
1("
bx0000 )"
#7600
0!
b10 $
b10 9
1R
1S
0Q
1T
0A
1V
0Y
0[
1]
0H
0I
0K
1O
0?
b110 :
b110 <
b110 4
b110 =
b110 %"
b110 &
b110 ,
b110 $"
#7800
1A
1H
1I
1K
1?
b111 :
b111 <
b111 4
b111 =
b111 %"
b111 &
b111 ,
b111 $"
0("
bx0010 )"
#8000
1!
b0 $
b0 9
0R
1q
0a
0S
1Q
0T
0A
1x
1y
1{
0h
0i
0k
0V
1Y
1[
0]
0H
0I
0K
1o
0_
0O
0?
b1000 :
b1000 <
b1000 4
b1000 =
b1000 %"
b1000 &
b1000 ,
b1000 $"
#8200
1A
1H
1I
1K
1?
b1001 :
b1001 <
b1001 4
b1001 =
b1001 %"
b1001 &
b1001 ,
b1001 $"
1("
bx0000 )"
#8400
0!
b10 $
b10 9
1R
1S
0Q
1T
0A
1V
0Y
0[
1]
0H
0I
0K
1O
0?
b1010 :
b1010 <
b1010 4
b1010 =
b1010 %"
b1010 &
b1010 ,
b1010 $"
#8600
1A
1H
1I
1K
1?
b1011 :
b1011 <
b1011 4
b1011 =
b1011 %"
b1011 &
b1011 ,
b1011 $"
0("
bx0010 )"
#8800
1!
b0 $
b0 9
0R
1a
0S
1Q
0T
0A
1h
1i
1k
0V
1Y
1[
0]
0H
0I
0K
1_
0O
0?
b1100 :
b1100 <
b1100 4
b1100 =
b1100 %"
b1100 &
b1100 ,
b1100 $"
#9000
1A
1H
1I
1K
1?
b1101 :
b1101 <
b1101 4
b1101 =
b1101 %"
b1101 &
b1101 ,
b1101 $"
1("
bx0000 )"
#9200
0!
b10 $
b10 9
1R
1S
0Q
1T
0A
1V
0Y
0[
1]
0H
0I
0K
1O
0?
b1110 :
b1110 <
b1110 4
b1110 =
b1110 %"
b1110 &
b1110 ,
b1110 $"
#9400
1A
1H
1I
1K
1?
b1111 :
b1111 <
b1111 4
b1111 =
b1111 %"
b1111 &
b1111 ,
b1111 $"
0("
bx0010 )"
#9600
1!
b0 $
b0 9
0R
0q
0a
0S
1Q
0T
0x
0y
0{
0h
0i
0k
0V
1Y
1[
0]
0G
0o
0_
0O
0?
1>
b0 :
b0 <
b11 ;
b11 ""
b0 4
b0 =
b0 %"
b11 %
b11 *
b11 !"
b11 #"
b0 &
b0 ,
b0 $"
#9800
0!
b1 $
b1 9
1B
1C
0A
1D
1F
0I
0K
1M
1?
b1 :
b1 <
b1 4
b1 =
b1 %"
b1 &
b1 ,
b1 $"
1("
bx0000 )"
#10000
1R
b10 $
b10 9
0B
1S
0Q
1T
0C
1A
0D
1V
0Y
0[
1]
0F
1I
1K
0M
1O
0?
b10 :
b10 <
b10 4
b10 =
b10 %"
b10 &
b10 ,
b10 $"
0("
bx0001 )"
#10200
b11 $
b11 9
1B
1C
0A
1D
1F
0I
0K
1M
1?
b11 :
b11 <
b11 4
b11 =
b11 %"
b11 &
b11 ,
b11 $"
bx0010 )"
#10400
1!
0R
b0 $
b0 9
0B
1a
0S
1Q
0T
0C
1A
0D
1h
1i
1k
0V
1Y
1[
0]
0F
1I
1K
0M
1_
0O
0?
b100 :
b100 <
b100 4
b100 =
b100 %"
b100 &
b100 ,
b100 $"
bx0011 )"
#10600
0!
b1 $
b1 9
1B
1C
0A
1D
1F
0I
0K
1M
1?
b101 :
b101 <
b101 4
b101 =
b101 %"
b101 &
b101 ,
b101 $"
1("
bx0000 )"
#10800
1R
b10 $
b10 9
0B
1S
0Q
1T
0C
1A
0D
1V
0Y
0[
1]
0F
1I
1K
0M
1O
0?
b110 :
b110 <
b110 4
b110 =
b110 %"
b110 &
b110 ,
b110 $"
0("
bx0001 )"
#11000
b11 $
b11 9
1B
1C
0A
1D
1F
0I
0K
1M
1?
b111 :
b111 <
b111 4
b111 =
b111 %"
b111 &
b111 ,
b111 $"
bx0010 )"
#11200
1!
0R
b0 $
b0 9
0B
1q
0a
0S
1Q
0T
0C
1A
0D
1x
1y
1{
0h
0i
0k
0V
1Y
1[
0]
0F
1I
1K
0M
1o
0_
0O
0?
b1000 :
b1000 <
b1000 4
b1000 =
b1000 %"
b1000 &
b1000 ,
b1000 $"
bx0011 )"
#11400
0!
b1 $
b1 9
1B
1C
0A
1D
1F
0I
0K
1M
1?
b1001 :
b1001 <
b1001 4
b1001 =
b1001 %"
b1001 &
b1001 ,
b1001 $"
1("
bx0000 )"
#11600
1R
b10 $
b10 9
0B
1S
0Q
1T
0C
1A
0D
1V
0Y
0[
1]
0F
1I
1K
0M
1O
0?
b1010 :
b1010 <
b1010 4
b1010 =
b1010 %"
b1010 &
b1010 ,
b1010 $"
0("
bx0001 )"
#11800
b11 $
b11 9
1B
1C
0A
1D
1F
0I
0K
1M
1?
b1011 :
b1011 <
b1011 4
b1011 =
b1011 %"
b1011 &
b1011 ,
b1011 $"
bx0010 )"
#12000
1!
0R
b0 $
b0 9
0B
1a
0S
1Q
0T
0C
1A
0D
1h
1i
1k
0V
1Y
1[
0]
0F
1I
1K
0M
1_
0O
0?
b1100 :
b1100 <
b1100 4
b1100 =
b1100 %"
b1100 &
b1100 ,
b1100 $"
bx0011 )"
#12200
0!
b1 $
b1 9
1B
1C
0A
1D
1F
0I
0K
1M
1?
b1101 :
b1101 <
b1101 4
b1101 =
b1101 %"
b1101 &
b1101 ,
b1101 $"
1("
bx0000 )"
#12400
1R
b10 $
b10 9
0B
1S
0Q
1T
0C
1A
0D
1V
0Y
0[
1]
0F
1I
1K
0M
1O
0?
b1110 :
b1110 <
b1110 4
b1110 =
b1110 %"
b1110 &
b1110 ,
b1110 $"
0("
bx0001 )"
#12600
b11 $
b11 9
1B
1C
0A
1D
1F
0I
0K
1M
1?
b1111 :
b1111 <
b1111 4
b1111 =
b1111 %"
b1111 &
b1111 ,
b1111 $"
bx0010 )"
#12800
1!
0R
b0 $
b0 9
0B
0q
0S
0T
0C
0D
0x
0y
0{
0g
0V
0X
1W
0]
0F
0H
1G
0M
0o
0_
0O
0?
1^
0N
0>
b0 :
b0 <
b100 ;
b100 ""
b0 4
b0 =
b0 %"
b100 %
b100 *
b100 !"
b100 #"
b0 &
b0 ,
b0 $"
bx0011 )"
#13000
1A
1H
1I
1K
1?
b1 :
b1 <
b1 4
b1 =
b1 %"
b1 &
b1 ,
b1 $"
1("
bx0000 )"
#13200
1Q
0A
1X
1Y
1[
0H
0I
0K
1O
0?
b10 :
b10 <
b10 4
b10 =
b10 %"
b10 &
b10 ,
b10 $"
#13400
1A
1H
1I
1K
1?
b11 :
b11 <
b11 4
b11 =
b11 %"
b11 &
b11 ,
b11 $"
#13600
0!
b100 $
b100 9
1b
1c
0a
1d
0Q
0A
1f
0i
0k
1m
0X
0Y
0[
0H
0I
0K
1_
0O
0?
b100 :
b100 <
b100 4
b100 =
b100 %"
b100 &
b100 ,
b100 $"
#13800
1A
1H
1I
1K
1?
b101 :
b101 <
b101 4
b101 =
b101 %"
b101 &
b101 ,
b101 $"
0("
bx0100 )"
#14000
1Q
0A
1X
1Y
1[
0H
0I
0K
1O
0?
b110 :
b110 <
b110 4
b110 =
b110 %"
b110 &
b110 ,
b110 $"
#14200
1A
1H
1I
1K
1?
b111 :
b111 <
b111 4
b111 =
b111 %"
b111 &
b111 ,
b111 $"
#14400
1!
b0 $
b0 9
0b
1q
0c
1a
0d
0Q
0A
1x
1y
1{
0f
1i
1k
0m
0X
0Y
0[
0H
0I
0K
1o
0_
0O
0?
b1000 :
b1000 <
b1000 4
b1000 =
b1000 %"
b1000 &
b1000 ,
b1000 $"
#14600
1A
1H
1I
1K
1?
b1001 :
b1001 <
b1001 4
b1001 =
b1001 %"
b1001 &
b1001 ,
b1001 $"
1("
bx0000 )"
#14800
1Q
0A
1X
1Y
1[
0H
0I
0K
1O
0?
b1010 :
b1010 <
b1010 4
b1010 =
b1010 %"
b1010 &
b1010 ,
b1010 $"
#15000
1A
1H
1I
1K
1?
b1011 :
b1011 <
b1011 4
b1011 =
b1011 %"
b1011 &
b1011 ,
b1011 $"
#15200
0!
b100 $
b100 9
1b
1c
0a
1d
0Q
0A
1f
0i
0k
1m
0X
0Y
0[
0H
0I
0K
1_
0O
0?
b1100 :
b1100 <
b1100 4
b1100 =
b1100 %"
b1100 &
b1100 ,
b1100 $"
#15400
1A
1H
1I
1K
1?
b1101 :
b1101 <
b1101 4
b1101 =
b1101 %"
b1101 &
b1101 ,
b1101 $"
0("
bx0100 )"
#15600
1Q
0A
1X
1Y
1[
0H
0I
0K
1O
0?
b1110 :
b1110 <
b1110 4
b1110 =
b1110 %"
b1110 &
b1110 ,
b1110 $"
#15800
1A
1H
1I
1K
1?
b1111 :
b1111 <
b1111 4
b1111 =
b1111 %"
b1111 &
b1111 ,
b1111 $"
#16000
1!
b0 $
b0 9
0b
0q
0c
1a
0d
0Q
0x
0y
0{
0f
1i
1k
0m
0X
0Y
0[
0G
0o
0_
0O
0?
1>
b0 :
b0 <
b101 ;
b101 ""
b0 4
b0 =
b0 %"
b101 %
b101 *
b101 !"
b101 #"
b0 &
b0 ,
b0 $"
#16200
0!
b1 $
b1 9
1B
1C
0A
1D
1F
0I
0K
1M
1?
b1 :
b1 <
b1 4
b1 =
b1 %"
b1 &
b1 ,
b1 $"
1("
bx0000 )"
#16400
1!
b0 $
b0 9
0B
1Q
0C
1A
0D
1X
1Y
1[
0F
1I
1K
0M
1O
0?
b10 :
b10 <
b10 4
b10 =
b10 %"
b10 &
b10 ,
b10 $"
0("
bx0001 )"
#16600
0!
b1 $
b1 9
1B
1C
0A
1D
1F
0I
0K
1M
1?
b11 :
b11 <
b11 4
b11 =
b11 %"
b11 &
b11 ,
b11 $"
1("
bx0000 )"
#16800
1b
b100 $
b100 9
0B
1c
0a
1d
0Q
0C
1A
0D
1f
0i
0k
1m
0X
0Y
0[
0F
1I
1K
0M
1_
0O
0?
b100 :
b100 <
b100 4
b100 =
b100 %"
b100 &
b100 ,
b100 $"
0("
bx0001 )"
#17000
b101 $
b101 9
1B
1C
0A
1D
1F
0I
0K
1M
1?
b101 :
b101 <
b101 4
b101 =
b101 %"
b101 &
b101 ,
b101 $"
bx0100 )"
#17200
b100 $
b100 9
0B
1Q
0C
1A
0D
1X
1Y
1[
0F
1I
1K
0M
1O
0?
b110 :
b110 <
b110 4
b110 =
b110 %"
b110 &
b110 ,
b110 $"
bx0101 )"
#17400
b101 $
b101 9
1B
1C
0A
1D
1F
0I
0K
1M
1?
b111 :
b111 <
b111 4
b111 =
b111 %"
b111 &
b111 ,
b111 $"
bx0100 )"
#17600
1!
0b
b0 $
b0 9
0B
1q
0c
1a
0d
0Q
0C
1A
0D
1x
1y
1{
0f
1i
1k
0m
0X
0Y
0[
0F
1I
1K
0M
1o
0_
0O
0?
b1000 :
b1000 <
b1000 4
b1000 =
b1000 %"
b1000 &
b1000 ,
b1000 $"
bx0101 )"
#17800
0!
b1 $
b1 9
1B
1C
0A
1D
1F
0I
0K
1M
1?
b1001 :
b1001 <
b1001 4
b1001 =
b1001 %"
b1001 &
b1001 ,
b1001 $"
1("
bx0000 )"
#18000
1!
b0 $
b0 9
0B
1Q
0C
1A
0D
1X
1Y
1[
0F
1I
1K
0M
1O
0?
b1010 :
b1010 <
b1010 4
b1010 =
b1010 %"
b1010 &
b1010 ,
b1010 $"
0("
bx0001 )"
#18200
0!
b1 $
b1 9
1B
1C
0A
1D
1F
0I
0K
1M
1?
b1011 :
b1011 <
b1011 4
b1011 =
b1011 %"
b1011 &
b1011 ,
b1011 $"
1("
bx0000 )"
#18400
1b
b100 $
b100 9
0B
1c
0a
1d
0Q
0C
1A
0D
1f
0i
0k
1m
0X
0Y
0[
0F
1I
1K
0M
1_
0O
0?
b1100 :
b1100 <
b1100 4
b1100 =
b1100 %"
b1100 &
b1100 ,
b1100 $"
0("
bx0001 )"
#18600
b101 $
b101 9
1B
1C
0A
1D
1F
0I
0K
1M
1?
b1101 :
b1101 <
b1101 4
b1101 =
b1101 %"
b1101 &
b1101 ,
b1101 $"
bx0100 )"
#18800
b100 $
b100 9
0B
1Q
0C
1A
0D
1X
1Y
1[
0F
1I
1K
0M
1O
0?
b1110 :
b1110 <
b1110 4
b1110 =
b1110 %"
b1110 &
b1110 ,
b1110 $"
bx0101 )"
#19000
b101 $
b101 9
1B
1C
0A
1D
1F
0I
0K
1M
1?
b1111 :
b1111 <
b1111 4
b1111 =
b1111 %"
b1111 &
b1111 ,
b1111 $"
bx0100 )"
#19200
1!
0b
b0 $
b0 9
0B
0q
0c
1a
0d
0C
0D
0x
0y
0{
0f
1i
1k
0m
0W
0F
0H
1G
0M
0o
0_
0O
0?
1N
0>
b0 :
b0 <
b110 ;
b110 ""
b0 4
b0 =
b0 %"
b110 %
b110 *
b110 !"
b110 #"
b0 &
b0 ,
b0 $"
bx0101 )"
#19400
1A
1H
1I
1K
1?
b1 :
b1 <
b1 4
b1 =
b1 %"
b1 &
b1 ,
b1 $"
1("
bx0000 )"
#19600
0!
b10 $
b10 9
1R
1S
0Q
1T
0A
1V
0Y
0[
1]
0H
0I
0K
1O
0?
b10 :
b10 <
b10 4
b10 =
b10 %"
b10 &
b10 ,
b10 $"
#19800
1A
1H
1I
1K
1?
b11 :
b11 <
b11 4
b11 =
b11 %"
b11 &
b11 ,
b11 $"
0("
bx0010 )"
#20000
1b
b100 $
b100 9
0R
1c
0a
1d
0S
1Q
0T
0A
1f
0i
0k
1m
0V
1Y
1[
0]
0H
0I
0K
1_
0O
0?
b100 :
b100 <
b100 4
b100 =
b100 %"
b100 &
b100 ,
b100 $"
#20200
1A
1H
1I
1K
1?
b101 :
b101 <
b101 4
b101 =
b101 %"
b101 &
b101 ,
b101 $"
bx0100 )"
#20400
b110 $
b110 9
1R
1S
0Q
1T
0A
1V
0Y
0[
1]
0H
0I
0K
1O
0?
b110 :
b110 <
b110 4
b110 =
b110 %"
b110 &
b110 ,
b110 $"
#20600
1A
1H
1I
1K
1?
b111 :
b111 <
b111 4
b111 =
b111 %"
b111 &
b111 ,
b111 $"
bx0110 )"
#20800
1!
0b
b0 $
b0 9
0R
1q
0c
1a
0d
0S
1Q
0T
0A
1x
1y
1{
0f
1i
1k
0m
0V
1Y
1[
0]
0H
0I
0K
1o
0_
0O
0?
b1000 :
b1000 <
b1000 4
b1000 =
b1000 %"
b1000 &
b1000 ,
b1000 $"
#21000
1A
1H
1I
1K
1?
b1001 :
b1001 <
b1001 4
b1001 =
b1001 %"
b1001 &
b1001 ,
b1001 $"
1("
bx0000 )"
#21200
0!
b10 $
b10 9
1R
1S
0Q
1T
0A
1V
0Y
0[
1]
0H
0I
0K
1O
0?
b1010 :
b1010 <
b1010 4
b1010 =
b1010 %"
b1010 &
b1010 ,
b1010 $"
#21400
1A
1H
1I
1K
1?
b1011 :
b1011 <
b1011 4
b1011 =
b1011 %"
b1011 &
b1011 ,
b1011 $"
0("
bx0010 )"
#21600
1b
b100 $
b100 9
0R
1c
0a
1d
0S
1Q
0T
0A
1f
0i
0k
1m
0V
1Y
1[
0]
0H
0I
0K
1_
0O
0?
b1100 :
b1100 <
b1100 4
b1100 =
b1100 %"
b1100 &
b1100 ,
b1100 $"
#21800
1A
1H
1I
1K
1?
b1101 :
b1101 <
b1101 4
b1101 =
b1101 %"
b1101 &
b1101 ,
b1101 $"
bx0100 )"
#22000
b110 $
b110 9
1R
1S
0Q
1T
0A
1V
0Y
0[
1]
0H
0I
0K
1O
0?
b1110 :
b1110 <
b1110 4
b1110 =
b1110 %"
b1110 &
b1110 ,
b1110 $"
#22200
1A
1H
1I
1K
1?
b1111 :
b1111 <
b1111 4
b1111 =
b1111 %"
b1111 &
b1111 ,
b1111 $"
bx0110 )"
